John    NNP    B-NP
loves    VBZ    B-VP
ice    NN    B-NP
cream    NN    I-NP
cake    NN    I-NP
.    .    O

But    CC    O
he    PRP    B-NP
does    VBZ    B-VP
not    RB    I-VP
love    VB    I-VP
orange    JJ    B-NP
juice    NN    I-NP
.    .    O
